<?xml version="1.0" encoding="UTF-8" standalone="no"?>
<!-- Created with Inkscape (http://www.inkscape.org/) -->
<svg
   xmlns:svg="http://www.w3.org/2000/svg"
   xmlns="http://www.w3.org/2000/svg"
   version="1.0"
   width="61.036438"
   height="60.682533"
   id="svg2">
  <defs
     id="defs4" />
  <g
     transform="matrix(0,1,-1,0,77.919017,-19.877892)"
     id="layer1">
    <g
       id="g3163">
      <path
         d="M 80.237377,47.41264 C 80.237377,63.886976 66.797763,77.242064 50.219158,77.242064 C 33.640553,77.242064 20.200939,63.886976 20.200939,47.41264 C 20.200939,30.938304 33.640553,17.583216 50.219158,17.583216 C 66.797763,17.583216 80.237377,30.938304 80.237377,47.41264 z"
         id="path2389"
         style="fill:#000000;fill-opacity:0.5018587;fill-rule:evenodd;stroke:#000000;stroke-width:1px;stroke-linecap:butt;stroke-linejoin:miter;stroke-opacity:1" />
      <path
         d="M 50.030364,47.790229 L 24.543198,32.309135 C 35.49324,12.674577 65.322664,12.674577 75.328737,32.120341 L 50.030364,47.790229 z"
         id="path2391"
         style="fill:#000000;fill-opacity:1;fill-rule:evenodd;stroke:#000000;stroke-width:1px;stroke-linecap:butt;stroke-linejoin:miter;stroke-opacity:1" />
    </g>
  </g>
</svg>
