<?xml version="1.0" encoding="UTF-8" standalone="no"?>
<!-- Created with Inkscape (http://www.inkscape.org/) -->
<svg
   xmlns:svg="http://www.w3.org/2000/svg"
   xmlns="http://www.w3.org/2000/svg"
   version="1.0"
   width="45.75"
   height="45.75"
   id="svg2">
  <defs
     id="defs4" />
  <g
     transform="rotate(135,22.5,22.5)"
     id="layer1">
    <g
       id="g3163">
      <path
         d="M 23,0.5 C -7,0.5 -7,45.5 23,45.5 C 53,45.5 53,0.5 23,0.5 z"
         id="path2389"
         style="fill:#000000;fill-opacity:0.5;fill-rule:evenodd;stroke:#000000;stroke-width:1px;stroke-linecap:butt;stroke-linejoin:miter;stroke-opacity:1" />
      <path
         d="M 22.625,22.625 L 2.8,13 C 11,-3 35.75,-3 42.95,13 L 22.625,22.625 z"
         id="path2828"
         style="fill:#000000;fill-opacity:1;fill-rule:evenodd;stroke:#000000;stroke-width:1px;stroke-linecap:butt;stroke-linejoin:miter;stroke-opacity:1" />
    </g>
  </g>
</svg>
